…
``` r
arrange(predicts, desc(color))
```

    ## # A tibble: 53,940 × 13
    ## # Groups:   color [7]
    ##    color data     model  carat cut   clarity depth table price     x     y     z
    ##    <ord> <list>   <list> <dbl> <ord> <ord>   <dbl> <dbl> <int> <dbl> <dbl> <dbl>
    ##  1 J     <tibble… <lm>    0.31 Good  SI2      63.3    58   335  4.34  4.35  2.75
    ##  2 J     <tibble… <lm>    0.24 Very… VVS2     62.8    57   336  3.94  3.96  2.48
    ##  3 J     <tibble… <lm>    0.3  Good  SI1      64      55   339  4.25  4.28  2.73
    ##  4 J     <tibble… <lm>    0.23 Ideal VS1      62.8    56   340  3.93  3.9   2.46
    ##  5 J     <tibble… <lm>    0.31 Ideal SI2      62.2    54   344  4.35  4.37  2.71
    ##  6 J     <tibble… <lm>    0.3  Good  SI1      63.4    54   351  4.23  4.29  2.7 
    ##  7 J     <tibble… <lm>    0.3  Good  SI1      63.8    56   351  4.23  4.26  2.71
    ##  8 J     <tibble… <lm>    0.3  Very… SI1      62.7    59   351  4.21  4.27  2.66
    ##  9 J     <tibble… <lm>    0.31 Very… SI1      59.4    62   353  4.39  4.43  2.62
    ## 10 J     <tibble… <lm>    0.31 Very… SI1      58.1    62   353  4.44  4.47  2.59
    ## # … with 53,930 more rows, and 1 more variable: pred <dbl>
…
